{
  "project_info": {
    "project_number": "755708593809",
    "firebase_url": "https://enrollme-f0b89.firebaseio.com",
    "project_id": "enrollme-f0b89",
    "storage_bucket": "enrollme-f0b89.appspot.com"
  },
  "client": [
    {
      "client_info": {
        "mobilesdk_app_id": "1:755708593809:android:c7232bf17ceb3fdd",
        "android_client_info": {
          "package_name": "com.enrollme.enrollme"
        }
      },
      "oauth_client": [
        {
          "client_id": "755708593809-f0f56t9d2jh9fu3lsujcvrvdl9u2kb3i.apps.googleusercontent.com",
          "client_type": 1,
          "android_info": {
            "package_name": "com.enrollme.enrollme",
            "certificate_hash": "d1255a17fecb02b8690689305d8ab2565971c1d4"
          }
        },
        {
          "client_id": "755708593809-hmlbgoubmstru2fig718j15fq85qo9c3.apps.googleusercontent.com",
          "client_type": 3
        }
      ],
      "api_key": [
        {
          "current_key": "AIzaSyD44fMWfBeGWtGHs2y61WCK7BG4YFV4Z3Q"
        }
      ],
      "services": {
        "analytics_service": {
          "status": 1
        },
        "appinvite_service": {
          "status": 2,
          "other_platform_oauth_client": [
            {
              "client_id": "755708593809-hmlbgoubmstru2fig718j15fq85qo9c3.apps.googleusercontent.com",
              "client_type": 3
            }
          ]
        },
        "ads_service": {
          "status": 2
        }
      }
    }
  ],
  "configuration_version": "1"
}